[gd_scene load_steps=2 format=2]

[ext_resource path="res://Scripts/Game.gd" type="Script" id=1]

[node name="Game" type="Node2D"]
script = ExtResource( 1 )

[node name="ColorRect" type="ColorRect" parent="."]
margin_right = 576.0
margin_bottom = 1024.0
color = Color( 0.290196, 0.290196, 0.290196, 1 )
