[gd_scene load_steps=5 format=2]

[sub_resource type="DynamicFontData" id=1]
font_path = "res://Fonts/BodoniFLF-Bold.ttf"

[sub_resource type="DynamicFont" id=2]
size = 60
font_data = SubResource( 1 )

[sub_resource type="DynamicFontData" id=3]
font_path = "res://Fonts/BodoniFLF-Bold.ttf"

[sub_resource type="DynamicFont" id=4]
size = 30
font_data = SubResource( 3 )

[node name="PausePanel" type="Panel"]
margin_top = 416.0
margin_right = 576.0
margin_bottom = 608.0

[node name="Label" type="Label" parent="."]
margin_top = 22.7207
margin_right = 576.0
margin_bottom = 150.721
custom_fonts/font = SubResource( 2 )
text = "Paused"
align = 1
valign = 1

[node name="Label2" type="Label" parent="."]
margin_top = 109.823
margin_right = 576.0
margin_bottom = 174.823
custom_fonts/font = SubResource( 4 )
text = "(ESC)"
align = 1
valign = 1

[node name="QuitButton" type="Button" parent="."]
margin_left = 485.0
margin_top = 139.0
margin_right = 550.0
margin_bottom = 175.0
text = "Quit"
