[gd_scene load_steps=4 format=2]

[sub_resource type="Theme" id=1]
Label/colors/font_color = Color( 1, 1, 1, 1 )
Label/colors/font_color_shadow = Color( 0, 0, 0, 0 )
Label/colors/font_outline_modulate = Color( 1, 1, 1, 1 )
Label/constants/line_spacing = 3
Label/constants/shadow_as_outline = 0
Label/constants/shadow_offset_x = 1
Label/constants/shadow_offset_y = 1
Label/fonts/font = null
Label/styles/normal = null

[sub_resource type="DynamicFontData" id=2]
font_path = "res://Fonts/BodoniFLF-Bold.ttf"

[sub_resource type="DynamicFont" id=3]
size = 65
outline_color = Color( 0.278431, 0.278431, 0.278431, 1 )
font_data = SubResource( 2 )

[node name="UI" type="Control"]
margin_right = 576.0
margin_bottom = 1024.0

[node name="ScorePanel" type="Panel" parent="."]
anchor_left = 0.5
anchor_right = 0.5
margin_left = -256.0
margin_top = 32.0
margin_right = 256.0
margin_bottom = 192.0

[node name="Label" type="Label" parent="ScorePanel"]
anchor_right = 1.0
anchor_bottom = 1.0
margin_top = 1.43198
margin_bottom = 1.43198
theme = SubResource( 1 )
custom_fonts/font = SubResource( 3 )
custom_colors/font_color = Color( 0.756863, 0.756863, 0.756863, 1 )
text = "Score: 9001"
align = 1
valign = 1
