[gd_scene load_steps=4 format=2]

[ext_resource path="res://Scenes/Block.tscn" type="PackedScene" id=1]
[ext_resource path="res://Scripts/YellowBlock.gd" type="Script" id=2]
[ext_resource path="res://Sprites/Pieces/yellow_square.png" type="Texture" id=3]

[node name="YellowBlock" index="0" instance=ExtResource( 1 )]
script = ExtResource( 2 )
color = "yellow"

[node name="Sprite" parent="." index="1"]
texture = ExtResource( 3 )
